\relax 
\providecommand\hyper@newdestlabel[2]{}
\providecommand\HyperFirstAtBeginDocument{\AtBeginDocument}
\HyperFirstAtBeginDocument{\ifx\hyper@anchor\@undefined
\global\let\oldcontentsline\contentsline
\gdef\contentsline#1#2#3#4{\oldcontentsline{#1}{#2}{#3}}
\global\let\oldnewlabel\newlabel
\gdef\newlabel#1#2{\newlabelxx{#1}#2}
\gdef\newlabelxx#1#2#3#4#5#6{\oldnewlabel{#1}{{#2}{#3}}}
\AtEndDocument{\ifx\hyper@anchor\@undefined
\let\contentsline\oldcontentsline
\let\newlabel\oldnewlabel
\fi}
\fi}
\global\let\hyper@last\relax 
\gdef\HyperFirstAtBeginDocument#1{#1}
\providecommand\HyField@AuxAddToFields[1]{}
\providecommand\HyField@AuxAddToCoFields[2]{}
\providecommand\@newglossary[4]{}
\@newglossary{main}{glg}{gls}{glo}
\@newglossary{acronym}{alg}{acr}{acn}
\providecommand\@glsorder[1]{}
\providecommand\@istfilename[1]{}
\@istfilename{thesis-unina.ist}
\@glsorder{word}
\citation{*}
\@writefile{toc}{\contentsline {chapter}{Contents}{i}{section*.1}}
\@writefile{toc}{\contentsline {chapter}{List of Figures}{iii}{section*.3}}
\@writefile{toc}{\contentsline {chapter}{Abstract}{1}{chapter*.6}}
\citation{Gartner2017}
\@writefile{toc}{\contentsline {chapter}{\numberline {1}Introduction}{3}{chapter.1}}
\@writefile{lof}{\addvspace {10\p@ }}
\@writefile{lot}{\addvspace {10\p@ }}
\newlabel{sec:intro}{{1}{3}{Introduction}{chapter.1}{}}
\@writefile{lof}{\contentsline {figure}{\numberline {1.1}{\ignorespaces Cloud-Edges Architecture\relax }}{4}{figure.caption.8}}
\providecommand*\caption@xref[2]{\@setref\relax\@undefined{#1}}
\newlabel{fig:arch_iot}{{1.1}{4}{Cloud-Edges Architecture\relax }{figure.caption.8}{}}
\citation{Sarkar2015fogIoT}
\citation{stojmenovic2014fog}
\citation{stojmenovic2016overview}
\citation{pappu2002physical}
\citation{suh2007physical}
\citation{frikken2009robust}
\citation{rostami2014robust}
\citation{barbareschi2018puf}
\citation{barbareschi2018puf}
\citation{Bonomi2012fog}
\citation{ciscoIoX}
\citation{stojmenovic2015overview}
\citation{liu2018secure}
\citation{Shi2016edge}
\citation{ni2017securing}
\citation{roman2018mobile}
\citation{lin2017survey}
\citation{khan2018iot}
\@writefile{toc}{\contentsline {chapter}{\numberline {2}Background on CE and Authentication Protocols}{9}{chapter.2}}
\@writefile{lof}{\addvspace {10\p@ }}
\@writefile{lot}{\addvspace {10\p@ }}
\newlabel{sec:ch_background}{{2}{9}{Background on CE and Authentication Protocols}{chapter.2}{}}
\@writefile{toc}{\contentsline {section}{\numberline {2.1}Cloud-Edge IoT Systems Security issues}{9}{section.2.1}}
\citation{Atwady2017authSurvey}
\citation{Trnka2018AuthSurvey}
\citation{lin2017survey}
\citation{kanuparthi2013hardware}
\@writefile{toc}{\contentsline {subsection}{\numberline {2.1.1}Security Risks in the IoT Architecture}{10}{subsection.2.1.1}}
\citation{yi2015security}
\citation{roman2018mobile}
\citation{chien2007rfid}
\citation{Tewari2017}
\citation{Kulkarni2014RFIDissues}
\@writefile{toc}{\contentsline {section}{\numberline {2.2}Hardware-based Authentication Solutions: RFIDs and PUFs}{12}{section.2.2}}
\citation{pappu2002physical}
\citation{suh2007physical}
\citation{frikken2009robust}
\citation{rostami2014robust}
\citation{barbareschi2015authenticating}
\citation{barbareschi2017designing}
\@writefile{toc}{\contentsline {chapter}{\numberline {3}Physically Unclonable Functions (PUFs)}{14}{chapter.3}}
\@writefile{lof}{\addvspace {10\p@ }}
\@writefile{lot}{\addvspace {10\p@ }}
\newlabel{sec:ch_pufs}{{3}{14}{Physically Unclonable Functions (PUFs)}{chapter.3}{}}
\citation{bhargava2014efficient}
\citation{barbareschi2018puf}
\citation{suh2007physical}
\@writefile{lof}{\contentsline {figure}{\numberline {3.1}{\ignorespaces weak PUF combined with AES cipher\relax }}{15}{figure.caption.9}}
\newlabel{fig:weak_puf}{{3.1}{15}{weak PUF combined with AES cipher\relax }{figure.caption.9}{}}
\@writefile{toc}{\contentsline {section}{\numberline {3.1}PUF-based Authentication}{16}{section.3.1}}
\newlabel{sec:puf_auth}{{3.1}{16}{PUF-based Authentication}{section.3.1}{}}
\@writefile{lof}{\contentsline {figure}{\numberline {3.2}{\ignorespaces PUF-based authentication mechanism\relax }}{16}{figure.caption.10}}
\newlabel{fig:PUF_auth}{{3.2}{16}{PUF-based authentication mechanism\relax }{figure.caption.10}{}}
\@writefile{toc}{\contentsline {section}{\numberline {3.2}Mutual Authentication}{17}{section.3.2}}
\citation{barbareschi2018puf}
\@writefile{lof}{\contentsline {figure}{\numberline {3.3}{\ignorespaces An example of PUF embedded by a device D\relax }}{19}{figure.caption.11}}
\newlabel{fig:puf_letters}{{3.3}{19}{An example of PUF embedded by a device D\relax }{figure.caption.11}{}}
\@writefile{toc}{\contentsline {section}{\numberline {3.3}PHEMAP protocol}{19}{section.3.3}}
\@writefile{lof}{\contentsline {figure}{\numberline {3.4}{\ignorespaces PUF Chain\relax }}{20}{figure.caption.12}}
\newlabel{fig:phemap_chain}{{3.4}{20}{PUF Chain\relax }{figure.caption.12}{}}
\@writefile{toc}{\contentsline {subsection}{\numberline {3.3.1}Notation and technical concepts: chains and sentinels}{20}{subsection.3.3.1}}
\citation{anderson2010puf}
\citation{dodis2004fuzzy}
\@writefile{lot}{\contentsline {table}{\numberline {3.1}{\ignorespaces Notation summary\relax }}{22}{table.caption.13}}
\newlabel{tab:Notation}{{3.1}{22}{Notation summary\relax }{table.caption.13}{}}
\@writefile{toc}{\contentsline {subsection}{\numberline {3.3.2}Assumptions}{22}{subsection.3.3.2}}
\newlabel{sec:ph}{{3.3.2}{22}{Assumptions}{subsection.3.3.2}{}}
\@writefile{lof}{\contentsline {figure}{\numberline {3.5}{\ignorespaces A general Fuzzy Extractor implementation. To the left, helper data and key are extracted during the enrollment phase. To the right, from a noisy PUF response, the same key is reproduced.\relax }}{23}{figure.caption.14}}
\newlabel{fig:fuzzy}{{3.5}{23}{A general Fuzzy Extractor implementation. To the left, helper data and key are extracted during the enrollment phase. To the right, from a noisy PUF response, the same key is reproduced.\relax }{figure.caption.14}{}}
\citation{barbareschi2018puf}
\@writefile{toc}{\contentsline {subsection}{\numberline {3.3.3}Enrollment}{24}{subsection.3.3.3}}
\@writefile{loa}{\contentsline {algorithm}{\numberline {1}{\ignorespaces Chain generation algorithm\relax }}{25}{algorithm.1}}
\newlabel{alg:chainmaker}{{1}{25}{Chain generation algorithm\relax }{algorithm.1}{}}
\@writefile{toc}{\contentsline {subsection}{\numberline {3.3.4}Initialization}{25}{subsection.3.3.4}}
\citation{barbareschi2018puf}
\@writefile{toc}{\contentsline {subsection}{\numberline {3.3.5}Verification}{27}{subsection.3.3.5}}
\@writefile{toc}{\contentsline {subsubsection}{Example}{29}{section*.15}}
\@writefile{lof}{\contentsline {figure}{\numberline {3.6}{\ignorespaces An example of initialization and verification in PHEMAP\relax }}{29}{figure.caption.16}}
\newlabel{fig:phemap_example}{{3.6}{29}{An example of initialization and verification in PHEMAP\relax }{figure.caption.16}{}}
\@writefile{toc}{\contentsline {subsection}{\numberline {3.3.6}De-synchronization and chain exhaustion}{30}{subsection.3.3.6}}
\@writefile{toc}{\contentsline {subsubsection}{De-synchronization during initialization}{31}{section*.17}}
\@writefile{toc}{\contentsline {subsubsection}{De-synchronization during verification}{32}{section*.18}}
\citation{barbareschi2018puf}
\@writefile{toc}{\contentsline {subsection}{\numberline {3.3.7}PHEMAP Analysis}{34}{subsection.3.3.7}}
\@writefile{toc}{\contentsline {subsubsection}{Security Considerations}{34}{section*.19}}
\citation{barbareschi2018puf}
\@writefile{toc}{\contentsline {subsubsection}{Performance Analysis}{36}{section*.20}}
\newlabel{sec:phemap_performance}{{3.3.7}{36}{Performance Analysis}{section*.20}{}}
\citation{barbareschi2018puf}
\citation{mansfield2010computer}
\citation{barbareschi2018puf}
\@writefile{lof}{\contentsline {figure}{\numberline {3.7}{\ignorespaces Efficiency values depending in the number of enrolled links $M$ and re-initializations\relax }}{38}{figure.caption.21}}
\newlabel{fig:available_links}{{3.7}{38}{Efficiency values depending in the number of enrolled links $M$ and re-initializations\relax }{figure.caption.21}{}}
\@writefile{toc}{\contentsline {section}{\numberline {3.4}Extended PHEMAP}{39}{section.3.4}}
\newlabel{sec:ephemap}{{3.4}{39}{Extended PHEMAP}{section.3.4}{}}
\@writefile{lof}{\contentsline {figure}{\numberline {3.8}{\ignorespaces new roles introduced by Extended PHEMAP\relax }}{40}{figure.caption.22}}
\newlabel{fig:ephemap_roles}{{3.8}{40}{new roles introduced by Extended PHEMAP\relax }{figure.caption.22}{}}
\@writefile{toc}{\contentsline {subsection}{\numberline {3.4.1}Salted PHEMAP}{41}{subsection.3.4.1}}
\newlabel{subsec:salted}{{3.4.1}{41}{Salted PHEMAP}{subsection.3.4.1}{}}
\@writefile{lof}{\contentsline {figure}{\numberline {3.9}{\ignorespaces Salted PHEMAP scenario\relax }}{42}{figure.caption.23}}
\newlabel{fig:salted_scenario}{{3.9}{42}{Salted PHEMAP scenario\relax }{figure.caption.23}{}}
\@writefile{lof}{\contentsline {figure}{\numberline {3.10}{\ignorespaces Salted PHEMAP protocol interactions\relax }}{43}{figure.caption.24}}
\newlabel{fig:salted_phemap}{{3.10}{43}{Salted PHEMAP protocol interactions\relax }{figure.caption.24}{}}
\@writefile{lof}{\contentsline {figure}{\numberline {3.11}{\ignorespaces Schematic of device internal circuitry that supports salted PHEMAP protocol.\relax }}{45}{figure.caption.25}}
\newlabel{fig:salted_device}{{3.11}{45}{Schematic of device internal circuitry that supports salted PHEMAP protocol.\relax }{figure.caption.25}{}}
\citation{barbareschi2018puf}
\@writefile{toc}{\contentsline {subsubsection}{Security considerations}{46}{section*.26}}
\@writefile{toc}{\contentsline {subsection}{\numberline {3.4.2}Babel-Chain PHEMAP}{47}{subsection.3.4.2}}
\newlabel{subsec:bc}{{3.4.2}{47}{Babel-Chain PHEMAP}{subsection.3.4.2}{}}
\@writefile{lof}{\contentsline {figure}{\numberline {3.12}{\ignorespaces BC PHEMAP protocol interactions\relax }}{50}{figure.caption.27}}
\newlabel{fig:bc-naware}{{3.12}{50}{BC PHEMAP protocol interactions\relax }{figure.caption.27}{}}
\@writefile{lof}{\contentsline {figure}{\numberline {3.13}{\ignorespaces BC PHEMAP variants\relax }}{50}{figure.caption.28}}
\newlabel{fig:babelchain_scenarios}{{3.13}{50}{BC PHEMAP variants\relax }{figure.caption.28}{}}
\@writefile{toc}{\contentsline {subsection}{\numberline {3.4.3}Security considerations}{51}{subsection.3.4.3}}
\citation{barbareschi2018puf}
\@writefile{lof}{\contentsline {figure}{\numberline {3.14}{\ignorespaces Proxy-based Babel-chain PHEMAP protocol interactions\relax }}{52}{figure.caption.29}}
\newlabel{fig:bc-aware}{{3.14}{52}{Proxy-based Babel-chain PHEMAP protocol interactions\relax }{figure.caption.29}{}}
\citation{bhargava2014efficient}
\@writefile{toc}{\contentsline {chapter}{\numberline {4}Efficiency Analysis and Experimental Results}{53}{chapter.4}}
\@writefile{lof}{\addvspace {10\p@ }}
\@writefile{lot}{\addvspace {10\p@ }}
\newlabel{sec:ch_perf}{{4}{53}{Efficiency Analysis and Experimental Results}{chapter.4}{}}
\@writefile{toc}{\contentsline {section}{\numberline {4.1}Implementation}{53}{section.4.1}}
\newlabel{sec:result}{{4.1}{53}{Implementation}{section.4.1}{}}
\@writefile{lof}{\contentsline {figure}{\numberline {4.1}{\ignorespaces STM32F7 Discovery\relax }}{54}{figure.caption.30}}
\newlabel{fig:stm_f7}{{4.1}{54}{STM32F7 Discovery\relax }{figure.caption.30}{}}
\@writefile{lof}{\contentsline {figure}{\numberline {4.2}{\ignorespaces STM32L4 Discovery\relax }}{54}{figure.caption.31}}
\newlabel{fig:stm_l4}{{4.2}{54}{STM32L4 Discovery\relax }{figure.caption.31}{}}
\@writefile{lof}{\contentsline {figure}{\numberline {4.3}{\ignorespaces Cubieboard Cubietruck\relax }}{55}{figure.caption.32}}
\newlabel{fig:ct}{{4.3}{55}{Cubieboard Cubietruck\relax }{figure.caption.32}{}}
\citation{barbareschi2018puf}
\@writefile{toc}{\contentsline {section}{\numberline {4.2}Experimental evaluation}{56}{section.4.2}}
\@writefile{toc}{\contentsline {subsection}{\numberline {4.2.1}Assessing PHEMAP performance}{56}{subsection.4.2.1}}
\@writefile{lof}{\contentsline {figure}{\numberline {4.4}{\ignorespaces Communication between two devices with PHEMAP\relax }}{57}{figure.caption.33}}
\newlabel{fig:ABphemap}{{4.4}{57}{Communication between two devices with PHEMAP\relax }{figure.caption.33}{}}
\newlabel{eq:phemaptemp}{{4.1}{57}{Assessing PHEMAP performance}{equation.4.2.1}{}}
\newlabel{eq:phemaptemp_m}{{4.2}{57}{Assessing PHEMAP performance}{equation.4.2.2}{}}
\@writefile{lof}{\contentsline {figure}{\numberline {4.5}{\ignorespaces PHEMAP verification latency between a device and the AS\relax }}{58}{figure.caption.34}}
\newlabel{fig:phemap_auth_time}{{4.5}{58}{PHEMAP verification latency between a device and the AS\relax }{figure.caption.34}{}}
\@writefile{lot}{\contentsline {table}{\numberline {4.1}{\ignorespaces Basic PHEMAP performances\relax }}{58}{table.caption.36}}
\newlabel{tab:phemap_perf}{{4.1}{58}{Basic PHEMAP performances\relax }{table.caption.36}{}}
\@writefile{lof}{\contentsline {figure}{\numberline {4.6}{\ignorespaces PHEMAP initialization latency\relax }}{59}{figure.caption.35}}
\newlabel{fig:phemapinit}{{4.6}{59}{PHEMAP initialization latency\relax }{figure.caption.35}{}}
\@writefile{toc}{\contentsline {subsection}{\numberline {4.2.2}Assessing pairwise BC PHEMAP performance}{59}{subsection.4.2.2}}
\newlabel{eq:bc_temp}{{4.3}{59}{Assessing pairwise BC PHEMAP performance}{equation.4.2.3}{}}
\newlabel{eq:bcm}{{4.4}{60}{Assessing pairwise BC PHEMAP performance}{equation.4.2.4}{}}
\newlabel{eq:bc}{{4.5}{60}{Assessing pairwise BC PHEMAP performance}{equation.4.2.5}{}}
\@writefile{lof}{\contentsline {figure}{\numberline {4.7}{\ignorespaces BC PHEMAP mutual authentication latency\relax }}{61}{figure.caption.37}}
\newlabel{fig:bcauthn}{{4.7}{61}{BC PHEMAP mutual authentication latency\relax }{figure.caption.37}{}}
\@writefile{lof}{\contentsline {figure}{\numberline {4.8}{\ignorespaces BC PHEMAP performance with respect to the carnet length\relax }}{62}{figure.caption.38}}
\newlabel{fig:bc-vary}{{4.8}{62}{BC PHEMAP performance with respect to the carnet length\relax }{figure.caption.38}{}}
\@writefile{lof}{\contentsline {figure}{\numberline {4.9}{\ignorespaces BC PHEMAP performance when varying the number of messages and the carnet length\relax }}{63}{figure.caption.39}}
\newlabel{fig:bc-vary2}{{4.9}{63}{BC PHEMAP performance when varying the number of messages and the carnet length\relax }{figure.caption.39}{}}
\@writefile{toc}{\contentsline {subsection}{\numberline {4.2.3}Assessing Proxy-based BC PHEMAP performance}{64}{subsection.4.2.3}}
\newlabel{eq:bc}{{4.6}{64}{Assessing Proxy-based BC PHEMAP performance}{equation.4.2.6}{}}
\@writefile{toc}{\contentsline {subsection}{\numberline {4.2.4}Assessing Salted PHEMAP performance}{65}{subsection.4.2.4}}
\newlabel{eq:phemaptemp_a_as}{{4.7}{65}{Assessing Salted PHEMAP performance}{equation.4.2.7}{}}
\newlabel{eq:phemaptemp_m_as_a}{{4.8}{65}{Assessing Salted PHEMAP performance}{equation.4.2.8}{}}
\@writefile{lof}{\contentsline {figure}{\numberline {4.10}{\ignorespaces PHEMAP mutual authentication latency using AWS EC2 as Server\relax }}{67}{figure.caption.40}}
\newlabel{fig:basic_ver_aws}{{4.10}{67}{PHEMAP mutual authentication latency using AWS EC2 as Server\relax }{figure.caption.40}{}}
\@writefile{lof}{\contentsline {figure}{\numberline {4.11}{\ignorespaces PHEMAP initialization latency using AWS EC2 as Server\relax }}{68}{figure.caption.41}}
\newlabel{fig:basic_init_aws}{{4.11}{68}{PHEMAP initialization latency using AWS EC2 as Server\relax }{figure.caption.41}{}}
\@writefile{lof}{\contentsline {figure}{\numberline {4.12}{\ignorespaces Salted PHEMAP mutual authentication latency\relax }}{68}{figure.caption.42}}
\newlabel{fig:salted_ver_aws}{{4.12}{68}{Salted PHEMAP mutual authentication latency\relax }{figure.caption.42}{}}
\@writefile{lof}{\contentsline {figure}{\numberline {4.13}{\ignorespaces Salted PHEMAP performance with respect to the carnet length\relax }}{69}{figure.caption.43}}
\newlabel{fig:salted_vary}{{4.13}{69}{Salted PHEMAP performance with respect to the carnet length\relax }{figure.caption.43}{}}
\@writefile{lof}{\contentsline {figure}{\numberline {4.14}{\ignorespaces BC PHEMAP performance when varying the number of messages and the carnet length\relax }}{70}{figure.caption.44}}
\newlabel{fig:salted_vary2}{{4.14}{70}{BC PHEMAP performance when varying the number of messages and the carnet length\relax }{figure.caption.44}{}}
\citation{stojmenovic2014fog}
\@writefile{toc}{\contentsline {chapter}{\numberline {5}Application Domain and Deployment Scheme}{72}{chapter.5}}
\@writefile{lof}{\addvspace {10\p@ }}
\@writefile{lot}{\addvspace {10\p@ }}
\newlabel{sec:ch_deploy}{{5}{72}{Application Domain and Deployment Scheme}{chapter.5}{}}
\citation{fowler2006continuous}
\@writefile{lof}{\contentsline {figure}{\numberline {5.1}{\ignorespaces The Chef driven deployment\relax }}{74}{figure.caption.45}}
\newlabel{fig:chef_deployment}{{5.1}{74}{The Chef driven deployment\relax }{figure.caption.45}{}}
\@writefile{toc}{\contentsline {section}{\numberline {5.1}Continuous Integration}{74}{section.5.1}}
\@writefile{lof}{\contentsline {figure}{\numberline {5.2}{\ignorespaces The Continuous Integration Development Cycle\relax }}{75}{figure.caption.46}}
\newlabel{fig:ci_cycle}{{5.2}{75}{The Continuous Integration Development Cycle\relax }{figure.caption.46}{}}
\@writefile{lol}{\contentsline {lstlisting}{code/gitlab\textendash ci.yml}{76}{lstlisting.5.-1}}
\@writefile{toc}{\contentsline {section}{\numberline {5.2}Chef Automation}{77}{section.5.2}}
\@writefile{lof}{\contentsline {figure}{\numberline {5.3}{\ignorespaces Relationship among Chef workstation, Chef server and node, taken from Chef website\relax }}{77}{figure.caption.47}}
\newlabel{fig:workstation_server_node}{{5.3}{77}{Relationship among Chef workstation, Chef server and node, taken from Chef website\relax }{figure.caption.47}{}}
\@writefile{lol}{\contentsline {lstlisting}{code/recipe.rb}{78}{lstlisting.5.-2}}
\@writefile{lol}{\contentsline {lstlisting}{code/run\textunderscore phemap.sh.erb}{79}{lstlisting.5.-3}}
\@writefile{toc}{\contentsline {subsection}{\numberline {5.2.1}Chef Workstation Configuration}{79}{subsection.5.2.1}}
\@writefile{lof}{\contentsline {figure}{\numberline {5.4}{\ignorespaces Chef Manage interface, generate knife config\relax }}{80}{figure.caption.48}}
\newlabel{fig:knife_config}{{5.4}{80}{Chef Manage interface, generate knife config\relax }{figure.caption.48}{}}
\@writefile{lof}{\contentsline {figure}{\numberline {5.5}{\ignorespaces Chef Manage interface, generate RSA key\relax }}{81}{figure.caption.49}}
\newlabel{fig:knife_key}{{5.5}{81}{Chef Manage interface, generate RSA key\relax }{figure.caption.49}{}}
\@writefile{lof}{\contentsline {figure}{\numberline {5.6}{\ignorespaces knife bootstrap process\relax }}{82}{figure.caption.50}}
\newlabel{fig:knife_bootstrap}{{5.6}{82}{knife bootstrap process\relax }{figure.caption.50}{}}
\@writefile{toc}{\contentsline {subsection}{\numberline {5.2.2}Chef Client Configuration}{83}{subsection.5.2.2}}
\@writefile{toc}{\contentsline {chapter}{\numberline {6}Conclusions}{84}{chapter.6}}
\@writefile{lof}{\addvspace {10\p@ }}
\@writefile{lot}{\addvspace {10\p@ }}
\newlabel{sec:ch_conclusion}{{6}{84}{Conclusions}{chapter.6}{}}
\@writefile{toc}{\contentsline {section}{\numberline {6.1}Future Direction}{86}{section.6.1}}
\citation{Chef}
\@writefile{toc}{\contentsline {chapter}{\numberline {7}Appendix A: Chef Automation}{87}{chapter.7}}
\@writefile{lof}{\addvspace {10\p@ }}
\@writefile{lot}{\addvspace {10\p@ }}
\@writefile{lof}{\contentsline {figure}{\numberline {7.1}{\ignorespaces Overview of Chef Architecture\relax }}{88}{figure.caption.51}}
\newlabel{fig:chef_arch}{{7.1}{88}{Overview of Chef Architecture\relax }{figure.caption.51}{}}
\citation{um2426}
\citation{um1713}
\citation{um2285}
\@writefile{toc}{\contentsline {chapter}{\numberline {8}Appendix B: STM32L4}{90}{chapter.8}}
\@writefile{lof}{\addvspace {10\p@ }}
\@writefile{lot}{\addvspace {10\p@ }}
\@writefile{lof}{\contentsline {figure}{\numberline {8.1}{\ignorespaces X-CUBE$\_$CELLULAR architecture\relax }}{91}{figure.caption.52}}
\newlabel{fig:cubecell_arch}{{8.1}{91}{X-CUBE$\_$CELLULAR architecture\relax }{figure.caption.52}{}}
\@writefile{toc}{\contentsline {section}{\numberline {8.1}LwIP TCP/IP stack}{92}{section.8.1}}
\newlabel{sec:lwip}{{8.1}{92}{LwIP TCP/IP stack}{section.8.1}{}}
\@writefile{lof}{\contentsline {figure}{\numberline {8.2}{\ignorespaces LwIP abstraction layers\relax }}{93}{figure.caption.53}}
\newlabel{fig:lwip_arch}{{8.2}{93}{LwIP abstraction layers\relax }{figure.caption.53}{}}
\@writefile{toc}{\contentsline {section}{\numberline {8.2}Raw API operational mode}{93}{section.8.2}}
\@writefile{lof}{\contentsline {figure}{\numberline {8.3}{\ignorespaces Raw API operational model\relax }}{94}{figure.caption.54}}
\newlabel{fig:raw_op}{{8.3}{94}{Raw API operational model\relax }{figure.caption.54}{}}
\@writefile{toc}{\contentsline {section}{\numberline {8.3}Netconn and BSD Socket API operational mode}{94}{section.8.3}}
\@writefile{lof}{\contentsline {figure}{\numberline {8.4}{\ignorespaces Netconn/BSD Socket API operational model\relax }}{95}{figure.caption.55}}
\newlabel{fig:lwip_op}{{8.4}{95}{Netconn/BSD Socket API operational model\relax }{figure.caption.55}{}}
\@writefile{toc}{\contentsline {chapter}{Acknowledgement}{96}{chapter*.56}}
\bibstyle{plain}
\bibdata{bibliography}
\bibcite{anderson2010puf}{1}
\bibcite{Atwady2017authSurvey}{2}
\bibcite{barbareschi2015authenticating}{3}
\bibcite{barbareschi2017designing}{4}
\bibcite{barbareschi2018puf}{5}
\bibcite{bhargava2014efficient}{6}
\bibcite{Bonomi2012fog}{7}
\bibcite{Braeken2018PUF}{8}
\bibcite{Chatterjee2017PUFbasedAuth}{9}
\bibcite{chien2007rfid}{10}
\bibcite{ciscoIoX}{11}
\bibcite{dodis2004fuzzy}{12}
\bibcite{fowler2006continuous}{13}
\bibcite{frikken2009robust}{14}
\bibcite{Gartner2017}{15}
\bibcite{gassend2007controlled}{16}
\bibcite{Huth2015PUF}{17}
\bibcite{kanuparthi2013hardware}{18}
\bibcite{khan2018iot}{19}
\bibcite{Khan2017fogsecurity}{20}
\bibcite{Kulkarni2014RFIDissues}{21}
\bibcite{lin2017survey}{22}
\bibcite{liu2018secure}{23}
\bibcite{mansfield2010computer}{24}
\bibcite{Mukherjee2017secissues}{25}
\bibcite{ni2017securing}{26}
\bibcite{Ning2014AnEA}{27}
\bibcite{pappu2002physical}{28}
\bibcite{roman2018mobile}{29}
\bibcite{rostami2014robust}{30}
\bibcite{ruhrmair2010modeling}{31}
\bibcite{Sarkar2015fogIoT}{32}
\bibcite{Shi2016edge}{33}
\bibcite{um1713}{34}
\bibcite{um2285}{35}
\bibcite{um2426}{36}
\bibcite{stojmenovic2014fog}{37}
\bibcite{stojmenovic2015overview}{38}
\bibcite{stojmenovic2016overview}{39}
\bibcite{suh2007physical}{40}
\bibcite{Chef}{41}
\bibcite{Tewari2017}{42}
\bibcite{Trnka2018AuthSurvey}{43}
\bibcite{van2012reverse}{44}
\bibcite{yi2015security}{45}
